{
  "object_kind": "issue",
  "user": {
    "id": 1
  },
  "project": {
    "id": 2
  },
  "object_attributes": {
    "id": 3,
    "title": "New API: create/update/delete file",
    "author_id": 1,
    "project_id": 2,
    "created_at": "2013-12-03T17:15:43Z",
    "updated_at": "2013-12-03T17:15:43Z",
    "description": null,
    "milestone_id": null,
    "state": "opened",
    "iid": 4,
    "url": "http://example.com/diaspora/issues/4",
    "action": "open"
  },
  "changes": {
    "updated_by_id": {
      "previous": null,
      "current": 1
    },
    "updated_at": {
      "previous": "2017-09-15 16:50:55 UTC",
      "current": "2017-09-15 16:52:00 UTC"
    }
  }
}
